{
    "pagination": {
        "pageSize": 50,
        "currentPage": 14,
        "totalItems": 659,
        "totalPages": 14
    },
    "resourceBaseUri": "http://reports.sem-o.com/documents",
    "items": [
        {
            "_id": "5dfb5f3b9620d93a4e00f3e4",
            "Date": "2019-12-19",
            "PublishTime": "2019-12-19T11:02:38",
            "DPuG_ID": "BM-095",
            "ReportName": "Balancing and Imbalance Market Cost View",
            "Group": [
                "Settlement Data"
            ],
            "Dynamic": true,
            "ResourceName": "PUB_30MinImbalCost_201912191000.xml"
        },
        {
            "_id": "5dfb66419620d94c62387a64",
            "Date": "2019-12-19",
            "PublishTime": "2019-12-19T11:32:30",
            "DPuG_ID": "BM-095",
            "ReportName": "Balancing and Imbalance Market Cost View",
            "Group": [
                "Settlement Data"
            ],
            "Dynamic": true,
            "ResourceName": "PUB_30MinImbalCost_201912191030.xml"
        },
        {
            "_id": "5dfb6d549620d95f0801fa28",
            "Date": "2019-12-19",
            "PublishTime": "2019-12-19T12:04:20",
            "DPuG_ID": "BM-095",
            "ReportName": "Balancing and Imbalance Market Cost View",
            "Group": [
                "Settlement Data"
            ],
            "Dynamic": true,
            "ResourceName": "PUB_30MinImbalCost_201912191100.xml"
        },
        {
            "_id": "5dfb7b599620d9052f267cd4",
            "Date": "2019-12-19",
            "PublishTime": "2019-12-19T13:03:47",
            "DPuG_ID": "BM-095",
            "ReportName": "Balancing and Imbalance Market Cost View",
            "Group": [
                "Settlement Data"
            ],
            "Dynamic": true,
            "ResourceName": "PUB_30MinImbalCost_201912191200.xml"
        },
        {
            "_id": "5dfb82629620d917704675f4",
            "Date": "2019-12-19",
            "PublishTime": "2019-12-19T13:33:21",
            "DPuG_ID": "BM-095",
            "ReportName": "Balancing and Imbalance Market Cost View",
            "Group": [
                "Settlement Data"
            ],
            "Dynamic": true,
            "ResourceName": "PUB_30MinImbalCost_201912191230.xml"
        },
        {
            "_id": "5dfb90729620d93cb95ad014",
            "Date": "2019-12-19",
            "PublishTime": "2019-12-19T14:32:48",
            "DPuG_ID": "BM-095",
            "ReportName": "Balancing and Imbalance Market Cost View",
            "Group": [
                "Settlement Data"
            ],
            "Dynamic": true,
            "ResourceName": "PUB_30MinImbalCost_201912191330.xml"
        },
        {
            "_id": "5dfb977b9620d950724efe74",
            "Date": "2019-12-19",
            "PublishTime": "2019-12-19T15:03:36",
            "DPuG_ID": "BM-095",
            "ReportName": "Balancing and Imbalance Market Cost View",
            "Group": [
                "Settlement Data"
            ],
            "Dynamic": true,
            "ResourceName": "PUB_30MinImbalCost_201912191400.xml"
        },
        {
            "_id": "5dfba58a9620d975cd072564",
            "Date": "2019-12-19",
            "PublishTime": "2019-12-19T16:03:53",
            "DPuG_ID": "BM-095",
            "ReportName": "Balancing and Imbalance Market Cost View",
            "Group": [
                "Settlement Data"
            ],
            "Dynamic": true,
            "ResourceName": "PUB_30MinImbalCost_201912191500.xml"
        },
        {
            "_id": "5dfbb3a29620d91c6624639d",
            "Date": "2019-12-19",
            "PublishTime": "2019-12-19T17:03:21",
            "DPuG_ID": "BM-095",
            "ReportName": "Balancing and Imbalance Market Cost View",
            "Group": [
                "Settlement Data"
            ],
            "Dynamic": true,
            "ResourceName": "PUB_30MinImbalCost_201912191600.xml"
        }
    ]
}